{
    "name": "Digitom.Controllers",
    "rootNamespace": "DigitomControllers",
    "references": [
        "GUID:2ad3604a3e2e24e4584fb53178f88108",
        "GUID:d16adc9c127055e40ae0b0c1af079c2e",
        "GUID:a3089cb161c4e194db236ad7f5a05446",
        "GUID:75469ad4d38634e559750d17036d5f7c",
        "GUID:4307f53044263cf4b835bd812fc161a4"
    ],
    "includePlatforms": [],
    "excludePlatforms": [],
    "allowUnsafeCode": false,
    "overrideReferences": false,
    "precompiledReferences": [],
    "autoReferenced": true,
    "defineConstraints": [],
    "versionDefines": [],
    "noEngineReferences": false
}